HW 6: 資料視覺化
…
cleaned_mydata<- mydata_csv %>%
    select(title, type, release_year, genres, production_countries, imdb_score, imdb_votes) %>%
    filter(release_year >= 2010, production_countries == "['US']", imdb_score > 7.5) %>%
    arrange(desc(imdb_score))

# 請務必印出 data frame
cleaned_mydata

#> # A tibble: 281 × 7
#>    title        type  release_year genres production_coun… imdb_score imdb_votes
#>    <chr>        <chr>        <dbl> <chr>  <chr>                 <dbl>      <dbl>
#>  1 The Last Da… SHOW          2020 ['doc… ['US']                  9.1     108321
#>  2 Arcane       SHOW          2021 ['act… ['US']                  9.1     175412
#>  3 Leah Remini… SHOW          2016 ['doc… ['US']                  9         5761
#>  4 When They S… SHOW          2019 ['dra… ['US']                  8.9     114127
#>  5 BoJack Hors… SHOW          2014 ['dra… ['US']                  8.8     143584
#>  6 Better Call… SHOW          2015 ['com… ['US']                  8.8     404920
#>  7 Narcos       SHOW          2015 ['dra… ['US']                  8.8     404486
#>  8 StoryBots S… SHOW          2016 ['ani… ['US']                  8.8        167
#>  9 House of Ca… SHOW          2013 ['dra… ['US']                  8.7     494092
#> 10 Stranger Th… SHOW          2016 ['sci… ['US']                  8.7     989090
#> # … with 271 more rows
…
